<?xml version="1.0" encoding="utf-8"?>
<!-- Generator: Adobe Illustrator 24.1.0, SVG Export Plug-In . SVG Version: 6.00 Build 0)  -->
<svg version="1.1" id="Layer_1" xmlns="http://www.w3.org/2000/svg" xmlns:xlink="http://www.w3.org/1999/xlink" x="0px" y="0px"
	 viewBox="0 0 40 40" style="enable-background:new 0 0 40 40;" xml:space="preserve">
<style type="text/css">
	.st0{fill:#FFFFFF;}
	.st1{fill:none;stroke:#000000;stroke-width:2;stroke-miterlimit:10;}
</style>
<g>
	<path class="st0" d="M32.8,3.6H9.6c-3.2,0-5.7,2.6-5.7,5.7v23.3c0,3.2,2.6,5.7,5.7,5.7h23.3c3.2,0,5.7-2.6,5.7-5.7V9.4
		C38.5,6.2,36,3.6,32.8,3.6z"/>
</g>
<g>
	<path class="st0" d="M32,5.2H10.8c-2.9,0-5.2,2.3-5.2,5.2v21.2c0,2.9,2.3,5.2,5.2,5.2H32c2.9,0,5.2-2.3,5.2-5.2V10.5
		C37.2,7.6,34.9,5.2,32,5.2z M29.4,23.1h-6v6c0,1.1-0.9,2-2,2s-2-0.9-2-2v-6h-6c-1.1,0-2-0.9-2-2s0.9-2,2-2h6v-6c0-1.1,0.9-2,2-2
		s2,0.9,2,2v6h6c1.1,0,2,0.9,2,2S30.5,23.1,29.4,23.1z"/>
</g>
<path d="M29.4,23.1h-6v6c0,1.1-0.9,2-2,2s-2-0.9-2-2v-6h-6c-1.1,0-2-0.9-2-2s0.9-2,2-2h6v-6c0-1.1,0.9-2,2-2s2,0.9,2,2v6h6
	c1.1,0,2,0.9,2,2S30.5,23.1,29.4,23.1z"/>
<g>
	<path class="st1" d="M31.3,6H11.2c-2.8,0-4.9,2.2-4.9,5v20c0,2.7,2.2,4.9,4.9,4.9h20.1c2.7,0,4.9-2.2,4.9-4.9V11
		C36.2,8.3,34,6,31.3,6z"/>
</g>
</svg>
