<?xml version="1.0" encoding="utf-8"?>
<!-- Generator: Adobe Illustrator 24.0.3, SVG Export Plug-In . SVG Version: 6.00 Build 0)  -->
<svg version="1.1" id="pictodelete" xmlns="http://www.w3.org/2000/svg" xmlns:xlink="http://www.w3.org/1999/xlink" x="0px"
	 y="0px" viewBox="0 0 70.9 70.9" style="enable-background:new 0 0 70.9 70.9;" xml:space="preserve">
<style type="text/css">
	.st0{fill-rule:evenodd;clip-rule:evenodd;}
</style>
<path class="st0" d="M57.6,0.7H11.2C5.4,0.7,0.7,5.4,0.7,11.2v46.4c0,5.8,4.7,10.5,10.5,10.5h46.4c5.8,0,10.5-4.7,10.5-10.5V11.2
	C68.1,5.4,63.4,0.7,57.6,0.7z M56,26L30.5,49.8c-1.6,1.5-4.2,1.5-5.9,0l-11.7-11c-1.7-1.6-1.7-4,0-5.5c1.6-1.5,4.2-1.5,5.9,0
	l8.9,8.2l22.5-21c1.6-1.5,4.2-1.5,5.9,0C57.7,22,57.7,24.5,56,26z"/>
</svg>
