<?xml version="1.0" encoding="utf-8"?>
<!-- Generator: Adobe Illustrator 24.1.0, SVG Export Plug-In . SVG Version: 6.00 Build 0)  -->
<svg version="1.1" id="pictoexport" xmlns="http://www.w3.org/2000/svg" xmlns:xlink="http://www.w3.org/1999/xlink" x="0px"
	 y="0px" viewBox="0 0 70.9 70.9" style="enable-background:new 0 0 70.9 70.9;" xml:space="preserve">
<g>
	<path d="M37.4,29.1c-0.4-0.3-1.2-0.5-2.1-0.5h-2.5v4.1h2c1.2,0,2.1-0.2,2.6-0.5s0.7-0.8,0.7-1.6C38,29.9,37.8,29.4,37.4,29.1z"/>
	<path d="M57.6,0.7H11.2C5.4,0.7,0.7,5.4,0.7,11.2v46.4c0,5.8,4.7,10.5,10.5,10.5h46.4c5.8,0,10.5-4.7,10.5-10.5V11.2
		C68.1,5.4,63.4,0.7,57.6,0.7z M25.4,28.2c-0.3,0.3-0.7,0.4-1.2,0.4h-0.2v7.6c0,2.5-0.5,4.2-1.6,5.3s-2.8,1.6-5.1,1.6
		c-2.5,0-4.2-0.5-5.3-1.6s-1.6-2.9-1.6-5.4v-7.6h-0.2c-0.5,0-0.9-0.1-1.2-0.4S8.5,27.6,8.5,27c0-0.6,0.1-1,0.4-1.2s0.8-0.4,1.4-0.4
		h3.8c0.7,0,1.1,0.1,1.4,0.4S16,26.5,16,27c0,0.5-0.1,0.9-0.4,1.2s-0.7,0.4-1.2,0.4h-0.2v7.7c0,1.4,0.2,2.3,0.7,2.9s1.3,0.9,2.4,0.9
		s1.9-0.3,2.4-0.9s0.7-1.5,0.7-2.9v-7.7H20c-0.5,0-0.9-0.1-1.2-0.4s-0.4-0.7-0.4-1.2c0-0.6,0.1-1,0.4-1.2s0.7-0.4,1.4-0.4h3.7
		c0.7,0,1.1,0.1,1.4,0.4s0.4,0.7,0.4,1.2C25.8,27.6,25.6,28,25.4,28.2z M43.8,42.4c-0.3,0.3-0.8,0.4-1.4,0.4h-1.8
		c-0.7,0-1.2-0.3-1.6-0.9l0,0l-3.6-5.5c-0.1-0.2-0.3-0.4-0.5-0.5s-0.4-0.2-0.6-0.2h-1.4v3.9h0.2c0.5,0,0.9,0.1,1.2,0.4
		s0.4,0.7,0.4,1.2c0,0.6-0.1,1-0.4,1.2s-0.7,0.4-1.4,0.4h-3.8c-0.7,0-1.1-0.1-1.4-0.4s-0.4-0.7-0.4-1.2c0-0.5,0.1-0.9,0.4-1.2
		s0.7-0.4,1.2-0.4h0.2V28.7h-0.2c-0.5,0-0.9-0.1-1.2-0.4s-0.4-0.7-0.4-1.2c0-0.6,0.1-1,0.4-1.2s0.8-0.4,1.4-0.4h6.8
		c2.1,0,3.6,0.4,4.7,1.2s1.6,2,1.6,3.6c0,1.1-0.3,2-0.9,2.8s-1.4,1.4-2.5,1.8c0.3,0.2,0.5,0.4,0.7,0.8c0,0.1,0.1,0.1,0.1,0.1
		l2.4,3.8h0.2h0.3c0.6,0,1,0.1,1.3,0.4s0.4,0.7,0.4,1.2C44.2,41.7,44.1,42.2,43.8,42.4z M57.5,39.6c0.7,0,1.1,0.1,1.4,0.4
		s0.4,0.7,0.4,1.2c0,0.6-0.1,1-0.4,1.2s-0.8,0.4-1.4,0.4h-8.7c-0.7,0-1.1-0.1-1.4-0.4s-0.4-0.7-0.4-1.2c0-0.6,0.1-1,0.4-1.2
		s0.8-0.4,1.4-0.4h2.5V28.7h-2.5c-0.7,0-1.1-0.1-1.4-0.4s-0.4-0.7-0.4-1.2c0-0.6,0.1-1,0.4-1.2s0.8-0.4,1.4-0.4h8.7
		c0.7,0,1.2,0.1,1.5,0.4s0.4,0.7,0.4,1.2c0,0.6-0.1,1-0.4,1.2s-0.8,0.4-1.4,0.4H55v10.9H57.5z"/>
</g>
</svg>
