<?xml version="1.0" encoding="utf-8"?>
<!-- Generator: Adobe Illustrator 24.1.0, SVG Export Plug-In . SVG Version: 6.00 Build 0)  -->
<svg version="1.1" id="pictoexport" xmlns="http://www.w3.org/2000/svg" xmlns:xlink="http://www.w3.org/1999/xlink" x="0px"
	 y="0px" viewBox="0 0 70.9 70.9" style="enable-background:new 0 0 70.9 70.9;" xml:space="preserve">
<g>
	<path d="M57.6,0.7H11.2C5.4,0.7,0.7,5.4,0.7,11.2v46.4c0,5.8,4.7,10.5,10.5,10.5h46.4c5.8,0,10.5-4.7,10.5-10.5V11.2
		C68.1,5.4,63.4,0.7,57.6,0.7z M56.7,36.3C53,39.8,44.3,46.7,34.3,46.7c-2.9,0-5.8-0.7-8.4-1.6l-5.8,6c-0.3,0.3-0.7,0.5-1.1,0.5
		c-0.3,0-0.7-0.1-1-0.4c-0.6-0.6-0.6-1.5,0-2.1l5-5.1c-4.8-2.3-8.7-5.4-10.9-7.5c-1.2-1.1-1.2-3,0-4.1c3.8-3.5,12.3-10.3,22.3-10.3
		c2.9,0,5.8,0.7,8.4,1.6l5.8-6c0.6-0.6,1.5-0.6,2.1,0s0.6,1.5,0,2.1l-5,5.1c4.8,2.3,8.7,5.5,10.9,7.6C57.8,33.6,57.8,35.5,56.7,36.3
		z"/>
</g>
</svg>
