<?xml version="1.0" encoding="utf-8"?>
<!-- Generator: Adobe Illustrator 24.0.3, SVG Export Plug-In . SVG Version: 6.00 Build 0)  -->
<svg version="1.1" id="Layer_1" xmlns="http://www.w3.org/2000/svg" xmlns:xlink="http://www.w3.org/1999/xlink" x="0px" y="0px"
	 viewBox="0 0 40 40" style="enable-background:new 0 0 40 40;" xml:space="preserve">
<style type="text/css">
	.st0{fill:#952062;}
</style>
<g>
	<path class="st0" d="M32,5.2H10.8c-2.9,0-5.2,2.3-5.2,5.2v21.2c0,2.9,2.3,5.3,5.2,5.3H32c2.9,0,5.2-2.3,5.2-5.3V10.5
		C37.2,7.6,34.9,5.2,32,5.2z M23.4,19.1h6c1.1,0,2,0.9,2,2c0,1.1-0.9,2-2,2h-6h-4h-6c-1.1,0-2-0.9-2-2c0-1.1,0.9-2,2-2h6H23.4z"/>
</g>
</svg>
