<?xml version="1.0" encoding="utf-8"?>
<!-- Generator: Adobe Illustrator 24.0.3, SVG Export Plug-In . SVG Version: 6.00 Build 0)  -->
<svg version="1.1" id="Layer_1" xmlns="http://www.w3.org/2000/svg" xmlns:xlink="http://www.w3.org/1999/xlink" x="0px" y="0px"
	 viewBox="0 0 40 40" style="enable-background:new 0 0 40 40;" xml:space="preserve">
<style type="text/css">
	.st0{fill:#FFFFFF;}
	.st1{fill:none;stroke:#952062;stroke-width:2;stroke-miterlimit:10;}
	.st2{fill:#952062;}
</style>
<g>
	<path class="st0" d="M33,6.2H11.8c-2.9,0-5.2,2.3-5.2,5.2v21.2c0,2.9,2.4,5.2,5.2,5.2H33c2.9,0,5.2-2.3,5.2-5.2V11.5
		C38.2,8.6,35.9,6.2,33,6.2z M24.4,20.1h6c1.1,0,2,0.9,2,2c0,1.1-0.9,2-2,2h-6h-4h-6c-1.1,0-2-0.9-2-2c0-1.1,0.9-2,2-2h6H24.4z"/>
</g>
<g>
	<path class="st1" d="M32.4,7H12.3c-2.7,0-4.9,2.2-4.9,4.9V32c0,2.7,2.2,4.9,4.9,4.9h20.1c2.7,0,4.9-2.2,4.9-4.9V12
		C37.4,9.3,35.2,7,32.4,7z"/>
</g>
<g>
	<path class="st2" d="M24.4,20h6c1.1,0,2,0.9,2,2c0,1.1-0.9,2-2,2h-6h-4h-6c-1.1,0-2-0.9-2-2c0-1.1,0.9-2,2-2h6H24.4z"/>
</g>
</svg>
