<?xml version="1.0" encoding="utf-8"?>
<!-- Generator: Adobe Illustrator 24.0.3, SVG Export Plug-In . SVG Version: 6.00 Build 0)  -->
<svg version="1.1" id="pictosettings" xmlns="http://www.w3.org/2000/svg" xmlns:xlink="http://www.w3.org/1999/xlink" x="0px"
	 y="0px" viewBox="0 0 70.87 70.87" style="enable-background:new 0 0 70.87 70.87;" xml:space="preserve">
<g>
	<path d="M41.93,31.3c-1.73-4-6.38-5.84-10.38-4.11c-4,1.73-5.84,6.38-4.11,10.38s6.38,5.84,10.38,4.11h0.01
		c3.99-1.73,5.83-6.37,4.11-10.37C41.93,31.31,41.93,31.31,41.93,31.3z"/>
	<path d="M57.9,0.73H11.5C5.7,0.73,1,5.43,1,11.23v46.4c0,5.8,4.7,10.5,10.5,10.5h46.4c5.8,0,10.5-4.7,10.5-10.5v-46.4
		C68.4,5.43,63.7,0.73,57.9,0.73z M54.73,42.39c-0.59,1.49-2.29,2.66-3.8,2.6s-3.25,0.56-3.98,1.33s-1.32,2.51-1.22,4.02
		s-1.01,3.24-2.48,3.87c-1.46,0.63-3.49,0.26-4.52-0.85s-2.71-1.89-3.76-1.87s-2.71,0.85-3.7,1.98c-0.99,1.13-3,1.58-4.49,0.99
		c-1.49-0.59-2.66-2.29-2.6-3.8s-0.57-3.24-1.34-3.98s-2.52-1.32-4.03-1.22c-1.51,0.11-3.24-1.01-3.88-2.48s-0.24-3.5,0.86-4.52
		c1.11-1.02,1.89-2.71,1.86-3.76s-0.86-2.71-2-3.7c-1.13-0.99-1.58-3-0.99-4.49s2.3-2.65,3.8-2.6c1.51,0.05,3.24-0.57,3.98-1.34
		c0.73-0.77,1.32-2.51,1.22-4.02s1.01-3.25,2.48-3.88c1.46-0.63,3.5-0.24,4.52,0.86s2.7,1.89,3.76,1.86s2.71-0.86,3.7-2
		c0.99-1.13,3-1.58,4.49-0.99c1.49,0.59,2.65,2.29,2.6,3.8c-0.06,1.51,0.57,3.25,1.34,3.98s2.51,1.32,4.02,1.22s3.25,1.01,3.88,2.47
		c0.61,1.55,0.29,3.31-0.84,4.54c-1.11,1.02-1.9,2.69-1.87,3.76s0.86,2.71,2,3.7C54.88,38.88,55.32,40.89,54.73,42.39z"/>
</g>
</svg>
